id;deleted;dich_vu_yeu_cau;doppler;don_gia_benh_vien;enabled;goi_han_chi_dinh;pham_vi_chi_dinh;phan_theo_gioi_tinh;sap_xep;so_lan_thuc_hien;so_luong_film;so_luong_qui_doi;ten;ten_hien_thi;ma_noi_bo;ma_dung_chung;don_vi_id;dot_ma_id;loaicdha_id
1;true;true;true;81471;false;1098;false;41965;66201;46537;24970;36266;parse Belize Dollar evolve;task-force;local area network Manors array;Walks red Specialist;1;1;1
2;true;true;true;21183;false;92836;false;27756;79630;88713;36040;22918;optical;Quality-focused International vertical;Automotive Mouse user-centric;Singapore Dollar Health Identity;2;2;2
3;false;true;true;9703;true;57744;false;87574;31459;27695;2603;41329;Seamless mission-critical input;Sports;Hat;Refined Concrete Sausages encryption Soft;3;3;3
4;true;false;true;94332;false;73870;true;5067;50219;90251;99255;73852;communities;Manager Shore local area network;Lempira;streamline copy;4;4;4
5;false;true;true;29817;true;348;true;71531;33050;49602;86994;34306;Expressway Cambridgeshire adapter;Sports Indiana Integration;intuitive ubiquitous;Colombian Peso Unidad de Valor Real;5;5;5
6;true;false;true;83345;false;75933;true;46086;49650;49446;83220;9664;Soap discrete;program back up;generate Pakistan Rupee;invoice back-end Fresh;6;6;6
7;false;false;false;53388;true;28386;true;51187;96464;63967;24579;50207;turquoise Division;matrices programming functionalities;Chicken Concrete SQL;budgetary management Soft;7;7;7
8;false;false;false;52859;false;66267;true;69806;63609;44007;21138;22567;Fantastic Wooden Chips Monaco;Cotton Gloves withdrawal;HTTP green Money Market Account;Florida Alaska;8;8;8
9;false;true;true;76508;true;39671;true;2699;87478;44860;62008;84703;Wyoming JSON;back-end synthesize time-frame;incentivize Identity optical;calculating hacking Product;9;9;9
10;true;false;false;68253;true;65373;false;40055;13738;44788;18364;84433;responsive Agent Dong;front-end International evolve;clicks-and-mortar Texas Cotton;payment Home Loan Account Music;10;10;10
