id;mo_ta;ten
1;plug-and-play SCSI;index
2;experiences Networked Georgia;Plastic
3;Berkshire deposit architectures;deposit success
4;pixel distributed;black Costa Rica copying
5;port International utilize;United States Minor Outlying Islands Re-contextualized
6;program Handcrafted;hierarchy connect
7;connect payment Advanced;Savings Account calculate Creative
8;GB;Drive Handcrafted Concrete Shoes Bedfordshire
9;compress;Money Market Account Towels
10;Danish Krone;optical parse
