id;jhi_enable;jhi_level;parent_id;ten;don_vi_id
1;false;8397;49152;Berkshire Baby Bedfordshire;1
2;true;41759;8796;Montana Intelligent Concrete Shoes object-oriented;2
3;false;33522;45503;quantify;3
4;true;24680;72223;IB architecture Handcrafted;4
5;true;72050;45094;West Virginia;5
6;true;15437;46970;silver Iraqi Dinar Towels;6
7;true;57492;52351;Cyprus mesh;7
8;true;3245;91727;Gloves;8
9;false;24526;27873;Avon Naira syndicate;9
10;true;61841;64450;salmon;10
