id;ten
1;extend
2;Incredible Intelligent generating
3;robust AI
4;Chief
5;Granite
6;maroon seamless
7;red card withdrawal
8;Cambridgeshire Movies Delaware
9;Zambian Kwacha Guadeloupe Money Market Account
10;Infrastructure Metal
