{
  "name": "BenhNhan",
  "fields": [
    {
      "fieldName": "chiCoNamSinh",
      "javadoc": "Trạng thái thông tin bệnh nhân chỉ có năm sinh:\\n1: Chỉ có năm sinh.\\n0: Đầy đủ ngày tháng năm sinh.",
      "fieldType": "Boolean",
      "fieldValidateRules": ["required"]
    },
    {
      "fieldName": "cmnd",
      "javadoc": "Thông tin chứng minh nhân dân của bệnh nhân",
      "fieldType": "String",
      "fieldValidateRules": ["maxlength"],
      "fieldValidateRulesMaxlength": "20"
    },
    {
      "fieldName": "email",
      "javadoc": "Thông tin địa chỉ email của bệnh nhân",
      "fieldType": "String",
      "fieldValidateRules": ["maxlength"],
      "fieldValidateRulesMaxlength": "255"
    },
    {
      "fieldName": "enabled",
      "javadoc": "Trạng thái của 1 dòng thông tin bệnh nhân\\n\\n1: Có hiệu lực.\\n\\n0: Không có hiệu lực.",
      "fieldType": "Boolean",
      "fieldValidateRules": ["required"]
    },
    {
      "fieldName": "gioiTinh",
      "javadoc": "Trạng thái giới tính của bệnh nhân:\\n\\n1: Nam\\n.\\n0: Nữ.",
      "fieldType": "Integer",
      "fieldValidateRules": ["required"]
    },
    {
      "fieldName": "khangThe",
      "javadoc": "Thông tin kháng thể của bệnh nhân",
      "fieldType": "String",
      "fieldValidateRules": ["maxlength"],
      "fieldValidateRulesMaxlength": "5"
    },
    {
      "fieldName": "maSoThue",
      "javadoc": "Thông tin mã số thuế của bệnh nhân",
      "fieldType": "String",
      "fieldValidateRules": ["maxlength"],
      "fieldValidateRulesMaxlength": "100"
    },
    {
      "fieldName": "ngayCapCmnd",
      "javadoc": "Ngày cấp chứng minh nhân dân của bệnh nhân",
      "fieldType": "LocalDate"
    },
    {
      "fieldName": "ngaySinh",
      "javadoc": "Thông tin ngày sinh của bệnh nhân",
      "fieldType": "LocalDate",
      "fieldValidateRules": ["required"]
    },
    {
      "fieldName": "nhomMau",
      "javadoc": "Thông tin nhóm máu của bệnh nhân",
      "fieldType": "String",
      "fieldValidateRules": ["maxlength"],
      "fieldValidateRulesMaxlength": "5"
    },
    {
      "fieldName": "noiCapCmnd",
      "javadoc": "Thông tin nơi cấp chứng minh nhân dân",
      "fieldType": "String",
      "fieldValidateRules": ["maxlength"],
      "fieldValidateRulesMaxlength": "500"
    },
    {
      "fieldName": "noiLamViec",
      "javadoc": "Thông tin nơi làm việc của bệnh nhân",
      "fieldType": "String",
      "fieldValidateRules": ["maxlength"],
      "fieldValidateRulesMaxlength": "500"
    },
    {
      "fieldName": "phone",
      "javadoc": "Thông tin số điện thoại của bệnh nhân",
      "fieldType": "String",
      "fieldValidateRules": ["maxlength"],
      "fieldValidateRulesMaxlength": "15"
    },
    {
      "fieldName": "ten",
      "javadoc": "Tên bệnh nhân",
      "fieldType": "String",
      "fieldValidateRules": ["required", "maxlength"],
      "fieldValidateRulesMaxlength": "200"
    },
    {
      "fieldName": "soNhaXom",
      "javadoc": "Số nhà của bệnh nhân",
      "fieldType": "String",
      "fieldValidateRules": ["maxlength"],
      "fieldValidateRulesMaxlength": "255"
    },
    {
      "fieldName": "apThon",
      "javadoc": "Thông tin ấp, thôn, xóm của bệnh nhân",
      "fieldType": "String",
      "fieldValidateRules": ["maxlength"],
      "fieldValidateRulesMaxlength": "255"
    },
    {
      "fieldName": "diaPhuongId",
      "javadoc": "Mã danh mục địa phương",
      "fieldType": "Long"
    },
    {
      "fieldName": "diaChiThuongTru",
      "javadoc": "Thông tin địa chỉ thường trú của bệnh nhân",
      "fieldType": "String",
      "fieldValidateRules": ["required", "maxlength"],
      "fieldValidateRulesMaxlength": "500"
    }
  ],
  "relationships": [
    {
      "relationshipType": "many-to-one",
      "otherEntityName": "danToc",
      "otherEntityRelationshipName": "benhNhan",
      "javadoc": "Mã dân tộc",
      "relationshipName": "danToc",
      "otherEntityField": "id"
    },
    {
      "relationshipType": "many-to-one",
      "otherEntityName": "ngheNghiep",
      "otherEntityRelationshipName": "benhNhan",
      "javadoc": "Mã nghề nghiệp",
      "relationshipName": "ngheNghiep",
      "otherEntityField": "id"
    },
    {
      "relationshipType": "many-to-one",
      "otherEntityName": "country",
      "otherEntityRelationshipName": "benhNhan",
      "relationshipValidateRules": "required",
      "javadoc": "Mã quốc tịch",
      "relationshipName": "quocTich",
      "otherEntityField": "id"
    },
    {
      "relationshipType": "many-to-one",
      "otherEntityName": "phuongXa",
      "otherEntityRelationshipName": "benhNhan",
      "javadoc": "Mã phường xã",
      "relationshipName": "phuongXa",
      "otherEntityField": "id"
    },
    {
      "relationshipType": "many-to-one",
      "otherEntityName": "quanHuyen",
      "otherEntityRelationshipName": "benhNhan",
      "javadoc": "Mã quận huyện",
      "relationshipName": "quanHuyen",
      "otherEntityField": "id"
    },
    {
      "relationshipType": "many-to-one",
      "otherEntityName": "tinhThanhPho",
      "otherEntityRelationshipName": "benhNhan",
      "javadoc": "Mã tỉnh thành phố",
      "relationshipName": "tinhThanhPho",
      "otherEntityField": "id"
    },
    {
      "relationshipType": "many-to-one",
      "otherEntityName": "userExtra",
      "otherEntityRelationshipName": "benhNhan",
      "relationshipName": "userExtra",
      "otherEntityField": "id"
    }
  ],
  "changelogDate": "20200506034700",
  "entityTableName": "benh_nhan",
  "dto": "mapstruct",
  "pagination": "pagination",
  "service": "serviceImpl",
  "jpaMetamodelFiltering": true,
  "fluentMethods": true,
  "readOnly": false,
  "embedded": false,
  "clientRootFolder": "khamchuabenh",
  "applications": ["khamchuabenh"],
  "microserviceName": "khamchuabenh"
}
