{
  "name": "QuanHuyen",
  "fields": [
    {
      "fieldName": "cap",
      "javadoc": "Cấp",
      "fieldType": "String",
      "fieldValidateRules": ["required", "maxlength"],
      "fieldValidateRulesMaxlength": "255"
    },
    {
      "fieldName": "guessPhrase",
      "javadoc": "Đoạn cụm từ gợi ý",
      "fieldType": "String",
      "fieldValidateRules": ["maxlength"],
      "fieldValidateRulesMaxlength": "255"
    },
    {
      "fieldName": "ten",
      "javadoc": "Tên quận huyện",
      "fieldType": "String",
      "fieldValidateRules": ["required", "maxlength"],
      "fieldValidateRulesMaxlength": "255"
    },
    {
      "fieldName": "tenKhongDau",
      "javadoc": "Tên không dấu",
      "fieldType": "String",
      "fieldValidateRules": ["required", "maxlength"],
      "fieldValidateRulesMaxlength": "255"
    }
  ],
  "relationships": [
    {
      "relationshipType": "many-to-one",
      "otherEntityName": "tinhThanhPho",
      "otherEntityRelationshipName": "quanHuyen",
      "relationshipValidateRules": "required",
      "javadoc": "Mã tỉnh thành phố",
      "relationshipName": "tinhThanhPho",
      "otherEntityField": "id"
    }
  ],
  "changelogDate": "20200506071900",
  "entityTableName": "quan_huyen",
  "dto": "mapstruct",
  "pagination": "no",
  "service": "serviceImpl",
  "jpaMetamodelFiltering": true,
  "fluentMethods": true,
  "readOnly": false,
  "embedded": false,
  "clientRootFolder": "khamchuabenh",
  "applications": [
    "khamchuabenh"
  ],
  "microserviceName": "khamchuabenh"
}
