{
  "fluentMethods": true,
  "clientRootFolder": "khamchuabenh",
  "fields": [

  ],
  "relationships": [
    {
      "relationshipType": "many-to-one",
      "otherEntityName": "nhomThuThuatPhauThuat",
      "otherEntityRelationshipName": "tPhanNhomTTPT",
      "relationshipValidateRules": "required",
      "relationshipName": "nhomttpt",
      "otherEntityField": "id"
    },
    {
      "relationshipType": "many-to-one",
      "otherEntityName": "thuThuatPhauThuat",
      "otherEntityRelationshipName": "tPhanNhomTTPT",
      "relationshipValidateRules": "required",
      "relationshipName": "ttpt",
      "otherEntityField": "id"
    }
  ],
  "changelogDate": "20200506034700",
  "entityTableName": "t_phan_nhom_ttpt",
  "dto": "mapstruct",
  "pagination": "pagination",
  "service": "serviceImpl",
  "jpaMetamodelFiltering": true,
  "fluentMethods": true,
  "readOnly": false,
  "embedded": false,
  "clientRootFolder": "khamchuabenh",
  "applications": [
    "khamchuabenh"
  ],
  "microserviceName": "khamchuabenh"
}
